0,1.0,0.0,0.0,0.0,0.0,0.0,
0,0.9378940610189533,-0.6282315081366312,0.0,0.0,-0.013865301732376762,0.0,
0,0.30966255288232214,-0.6282315081366312,0.0,0.0,-0.21120274140456047,0.0,
0,0.1999446110462393,-0.45782695826240083,0.0,0.0,-0.2403602247091885,0.0,
0,-0.25788234721616154,-0.45782695826240083,0.0,0.0,-0.345163000248137,0.0,
0,-0.32955574886359074,-0.2673833692152544,0.0,0.0,-0.35886814880906776,0.0,
0,-0.5969391180788451,-0.2673833692152544,0.0,0.0,-0.3946150865426375,0.0,
0,-0.6946121831188524,-0.699291213662586,0.0,0.0,-0.4188008968662952,0.0,
0,-1.3939033967814383,-0.699291213662586,0.0,0.0,-0.6633050295415942,0.0,
0,-1.4412717582638535,0.21983295693990068,0.0,0.0,-0.6769261199960764,0.0,
0,-1.2214388013239528,0.21983295693990068,0.0,0.0,-0.7010893876293021,0.0,
0,-1.260906912229722,-0.6102753566637604,0.0,0.0,-0.7104532199139281,0.0,
0,-1.8711822688934825,-0.6102753566637604,0.0,0.0,-0.8966712497020889,0.0,
0,-1.871859215035111,0.6031620261843115,0.0,0.0,-0.9104247446764527,0.0,
0,-1.2686971888507994,0.6031620261843115,0.0,0.0,-1.0923269833409859,0.0,
0,-1.2313072509876022,-0.23284455593830722,0.0,0.0,-1.1017275994078584,0.0,
0,-1.4641518069259094,-0.23284455593830722,0.0,0.0,-1.1288358965621705,0.0,
0,-1.4178169324808962,0.701442771650904,0.0,0.0,-1.1427177754637925,0.0,
0,-0.7163741608299923,0.701442771650904,0.0,0.0,-1.3887287885336346,0.0,
0,-0.6197957347400853,0.25463167978551365,0.0,0.0,-1.4129642522531127,0.0,
0,-0.36516405495457166,0.25463167978551365,0.0,0.0,-1.445382902660887,0.0,
0,-0.29371457520442534,0.4682251051795113,0.0,0.0,-1.4591753596432473,0.0,
0,0.17451052997508598,0.4682251051795113,0.0,0.0,-1.5687927485150728,0.0,
0,0.2846354261668434,0.6217749052047202,0.0,0.0,-1.5979313351058937,0.0,
0,0.9064103313715637,0.6217749052047202,0.0,0.0,-1.7912333767145723,0.0,
0,0.9692078990842062,0.013723461413948757,0.0,0.0,-1.8048679091571336,0.0,
0,0.982931360498155,0.013723461413948757,0.0,0.0,-1.804962075866018,0.0,
0,1.0545582217526317,0.6950732572057586,0.0,0.0,-1.8208984268393495,0.0,
0,1.7496314789583902,0.6950732572057586,0.0,0.0,-2.062461874819178,0.0,
0,1.7740991318185326,-0.44726854280297357,0.0,0.0,-2.076133483605206,0.0,
0,1.3268305890155592,-0.44726854280297357,0.0,0.0,-2.176158071354961,0.0,
0,1.3261084102803935,0.4398831494243498,0.0,0.0,-2.1827955352865445,0.0,
0,1.7659915597047433,0.4398831494243498,0.0,0.0,-2.2795441404917822,0.0,
0,1.7405655732075156,-0.696887747522462,0.0,0.0,-2.2933862595403185,0.0,
0,1.0436778256850536,-0.696887747522462,0.0,0.0,-2.5362125575671786,0.0,
0,0.9709471579650814,-0.02319685258786708,0.0,0.0,-2.5529565740953024,0.0,
0,0.9477503053772143,-0.02319685258786708,0.0,0.0,-2.5532256211154207,0.0,
0,0.8844463968625244,-0.6171627939605727,0.0,0.0,-2.5670876753023775,0.0,
0,0.26728360290195163,-0.6171627939605727,0.0,0.0,-2.7575326572914793,0.0,
0,0.15691596360998764,-0.4753188910355338,0.0,0.0,-2.786941269654643,0.0,
0,-0.3184029274255462,-0.4753188910355338,0.0,0.0,-2.8999053084908497,0.0,
0,-0.3896679413998968,-0.24576801370067294,0.0,0.0,-2.91360372380483,0.0,
0,-0.6354359551005697,-0.24576801370067294,0.0,0.0,-2.943804686027054,0.0,
0,-0.7312815904977447,-0.7028115406850253,0.0,0.0,-2.9673238106068807,0.0,
0,-1.4340931311827698,-0.7028115406850253,0.0,0.0,-3.214295873711576,0.0,
0,-1.4796397337759746,0.2417797205872695,0.0,0.0,-3.2279201033451224,0.0,
0,-1.2378600131887052,0.2417797205872695,0.0,0.0,-3.2571488238048523,0.0,
0,-1.273887178666615,-0.5981602390764555,0.0,0.0,-3.2660423698325523,0.0,
0,-1.8720474177430706,-0.5981602390764555,0.0,0.0,-3.444940228995453,0.0,
0,-1.870350176114889,0.6150682367845303,0.0,0.0,-3.458703636188288,0.0,
0,-1.255281939330359,0.6150682367845303,0.0,0.0,-3.647858128834909,0.0,
0,-1.2144637024790552,-0.21081939473094014,0.0,0.0,-3.657771688034497,0.0,
0,-1.4252830972099955,-0.21081939473094014,0.0,0.0,-3.6799940995332143,0.0,
0,-1.3771436333318416,0.697681491416125,0.0,0.0,-3.6938782732792177,0.0,
0,-0.6794621419157166,0.697681491416125,0.0,0.0,-3.937258036787187,0.0,
0,-0.5810882656548335,0.2761579720708038,0.0,0.0,-3.9621374282038357,0.0,
0,-0.30493029358402973,0.2761579720708038,0.0,0.0,-4.000269045951428,0.0,
0,-0.23309867135344847,0.4505737401230856,0.0,0.0,-4.014054488246694,0.0,
0,0.21747506876963713,0.4505737401230856,0.0,0.0,-4.115562849143876,0.0,
0,0.32691402588772756,0.6326290721137389,0.0,0.0,-4.144405727958844,0.0,
0,0.9595430980014664,0.6326290721137389,0.0,0.0,-4.344515525526919,0.0,
0,1.0211197473173919,-0.00947615801614965,0.0,0.0,-4.3581475610206155,0.0,
0,1.0116435893012423,-0.00947615801614965,0.0,0.0,-4.358192459811851,0.0,
0,1.0804272690113474,0.6901255466299668,0.0,0.0,-4.373389243244816,0.0,
0,1.7705528156413144,0.6901255466299668,0.0,0.0,-4.611525909391587,0.0,
0,1.7927734744624968,-0.46505241406419695,0.0,0.0,-4.625205835256211,0.0,
0,1.3277210603982998,-0.46505241406419695,0.0,0.0,-4.733342723288029,0.0,
0,1.3233421131058625,0.42147166886383797,0.0,0.0,-4.74003248163911,0.0,
0,1.7448137819697005,0.42147166886383797,0.0,0.0,-4.828851677062776,0.0,
0,1.7171766367931547,-0.7008512185492637,0.0,0.0,-4.842701196151163,0.0,
0,1.016325418243891,-0.7008512185492637,0.0,0.0,-5.088297443487196,0.0,
0,0.9408525627152998,-0.04637104031783923,0.0,0.0,-5.105801291452576,0.0,
0,0.8944815223974606,-0.04637104031783923,0.0,0.0,-5.106876428283026,0.0,
0,0.8300472768792516,-0.6054325991334784,0.0,0.0,-5.120734762932341,0.0,
0,0.22461467774577326,-0.6054325991334784,0.0,0.0,-5.3040091029073935,0.0,
0,0.11371538932737729,-0.49230379420253845,0.0,0.0,-5.333621258579487,0.0,
0,-0.37858840487516116,-0.49230379420253845,0.0,0.0,-5.454802787294051,0.0,
0,-0.4493687296412375,-0.2238876402418938,0.0,0.0,-5.468494697639634,0.0,
0,-0.6732563698831313,-0.2238876402418938,0.0,0.0,-5.493557538638379,0.0,
0,-0.7671718373264769,-0.7055800887827723,0.0,0.0,-5.516387426405727,0.0,
0,-1.4727519261092492,-0.7055800887827723,0.0,0.0,-5.765309089748285,0.0,
0,-1.5164278590250098,0.2634697888081541,0.0,0.0,-5.7789370067718755,0.0,
0,-1.2529580702168557,0.2634697888081541,0.0,0.0,-5.81364517611068,0.0,
0,-1.2855054159031882,-0.5854038788350507,0.0,0.0,-5.822108513999533,0.0,
0,-1.8709092947382389,-0.5854038788350507,0.0,0.0,-5.993457387048398,0.0,
0,-1.8668394606516094,0.6263173465633919,0.0,0.0,-6.0072306609140425,0.0,
0,-1.2405221140882174,0.6263173465633919,0.0,0.0,-6.2033673958247535,0.0,
0,-1.1963189403826553,-0.18856657734401816,0.0,0.0,-6.213829794856472,0.0,
0,-1.3848855177266735,-0.18856657734401816,0.0,0.0,-6.2316084742232745,0.0,
0,-1.334992812409992,0.6931732444003816,0.0,0.0,-6.245494379624482,0.0,
0,-0.6418195680096103,0.6931732444003816,0.0,0.0,-6.485738984367086,0.0,
0,-0.5417553482650714,0.2973907402609532,0.0,0.0,-6.511234177401977,0.0,
0,-0.24436460800411824,0.2973907402609532,0.0,0.0,-6.5554548093719,0.0,
0,-0.17222767760077254,0.432438555314422,0.0,0.0,-6.569233095198904,0.0,
0,0.2602108777136495,0.432438555314422,0.0,0.0,-6.662734659467678,0.0,
0,0.3688467169357387,0.642807247735694,0.0,0.0,-6.691236568125638,0.0,
0,1.0116539646714326,0.642807247735694,0.0,0.0,-6.897837173970176,0.0,
0,1.071943686334466,-0.03266779590669,0.0,0.0,-6.911467228705226,0.0,
0,1.039275890427776,-0.03266779590669,0.0,0.0,-6.912000821219593,0.0,
0,1.1051425158175492,0.6844388447647243,0.0,0.0,-6.926471092920723,0.0,
0,1.7895813605822735,0.6844388447647243,0.0,0.0,-7.160699389612998,0.0,
0,1.8095310370179654,-0.48234026945629793,0.0,0.0,-7.174387946415917,0.0,
0,1.3271907675616674,-0.48234026945629793,0.0,0.0,-7.290714029373034,0.0,
0,1.319159397448668,0.4026074410879359,0.0,0.0,-7.297505692946557,0.0,
0,1.7217668385366038,0.4026074410879359,0.0,0.0,-7.378552079337659,0.0,
0,1.6919479044880135,-0.704065049715077,0.0,0.0,-7.392408586970157,0.0,
0,0.9878828547729365,-0.704065049715077,0.0,0.0,-7.6402624164450925,0.0,
0,0.9097483227138294,-0.06949776146068698,0.0,0.0,-7.658529559052898,0.0,
0,0.8402505612531425,-0.06949776146068698,0.0,0.0,-7.6609445287922195,0.0,
0,0.7747548271749185,-0.5930534150368028,0.0,0.0,-7.67479869321964,0.0,
0,0.18170141213811575,-0.5930534150368028,0.0,0.0,-7.850654892722828,0.0,
0,0.07038910284879885,-0.5087634443520807,0.0,0.0,-7.880422133289955,0.0,
0,-0.4383743415032818,-0.5087634443520807,0.0,0.0,-8.009842271341542,0.0,
0,-0.5085941871094172,-0.20176563923035384,0.0,0.0,-8.023527938356231,0.0,
0,-0.710359826339771,-0.20176563923035384,0.0,0.0,-8.043882627600755,0.0,
0,-0.802244443505531,-0.7075938252515946,0.0,0.0,-8.066003680236578,0.0,
0,-1.5098382687571257,-0.7075938252515946,0.0,0.0,-8.316348223688648,0.0,
0,-1.5515966185329029,0.2848799263065357,0.0,0.0,-8.329980366112476,0.0,
0,-1.266716692226367,0.2848799263065357,0.0,0.0,-8.370558657616586,0.0,
0,-1.2957490640327458,-0.5720198673450363,0.0,0.0,-8.378633721350655,0.0,
0,-1.867768931377782,-0.5720198673450363,0.0,0.0,-8.542237107029424,0.0,
0,-1.8613306392980753,0.6368972562424491,0.0,0.0,-8.556020165266016,0.0,
0,-1.2244333830556262,0.6368972562424491,0.0,0.0,-8.75883924925065,0.0,
0,-1.1768922610210448,-0.16610989621343186,0.0,0.0,-8.769884049955104,0.0,
0,-1.3430021572344768,-0.16610989621343186,0.0,0.0,-8.783680300566362,0.0,
0,-1.291409439466402,0.687922785535112,0.0,0.0,-8.797567372395818,0.0,
0,-0.60348665393129,0.687922785535112,0.0,0.0,-9.03418628271797,0.0,
0,-0.5018390160768548,0.31830723500710867,0.0,0.0,-9.060266517944681,0.0,
0,-0.1835317810697461,0.31830723500710867,0.0,0.0,-9.110926272487752,0.0,
0,-0.11116671067497338,0.4138389129049801,0.0,0.0,-9.12469729614378,0.0,
0,0.3026722022300067,0.4138389129049801,0.0,0.0,-9.210328630240992,0.0,
0,0.41038859327588995,0.6522984770831574,0.0,0.0,-9.238445764436317,0.0,
0,1.0626870703590474,0.6522984770831574,0.0,0.0,-9.451192443815021,0.0,
0,1.1216252261617408,-0.055826633220961486,0.0,0.0,-9.464821048032606,0.0,
0,1.0657985929407792,-0.055826633220961486,0.0,0.0,-9.466379354724452,0.0,
0,1.128677406014464,0.6780191683951708,0.0,0.0,-9.480139289402924,0.0,
0,1.8066965744096348,0.6780191683951708,0.0,0.0,-9.70999431576843,0.0,
0,1.82435370814917,-0.4991135623918097,0.0,0.0,-9.72369178596874,0.0,
0,1.3252401457573604,-0.4991135623918097,0.0,0.0,-9.848248976312645,0.0,
0,1.3135646075678682,0.38331061131800725,0.0,0.0,-9.855191736313198,0.0,
0,1.6968752188858756,0.38331061131800725,0.0,0.0,-9.928655258279086,0.0,
0,1.6649062033250936,-0.7065257319996463,0.0,0.0,-9.94251831845319,0.0,
0,0.9583804713254473,-0.7065257319996463,0.0,0.0,-10.192107656028385,0.0,
0,0.8776676298732962,-0.09255226277467354,0.0,0.0,-10.211138297804059,0.0,
0,0.7851153670986226,-0.09255226277467354,0.0,0.0,-10.215421259035598,0.0,
0,0.7186281352529797,-0.5800384287238444,0.0,0.0,-10.229270825798068,0.0,
0,0.13858970652913538,-0.5800384287238444,0.0,0.0,-10.397493137159382,0.0,
0,0.02698345765563276,-0.5246801784708461,0.0,0.0,-10.427366338764847,0.0,
0,-0.4976967208152134,-0.5246801784708461,0.0,0.0,-10.56501100157583,0.0,
0,-0.5672808900467261,-0.1794256618097737,0.0,0.0,-10.57869071914309,0.0,
0,-0.7467065518564998,-0.1794256618097737,0.0,0.0,-10.594787505302623,0.0,
0,-0.8364618003436759,-0.7088505248589343,0.0,0.0,-10.616183161661048,0.0,
0,-1.5453123252026102,-0.7088505248589343,0.0,0.0,-10.86741772775862,0.0,
0,-1.5851082260914209,0.3059871951887977,0.0,0.0,-10.881054621088229,0.0,
0,-1.279121030902623,0.3059871951887977,0.0,0.0,-10.927868709010028,0.0,
0,-1.3046070329820607,-0.5580224689514667,0.0,0.0,-10.935599109324295,0.0,
0,-1.8626295019335273,-0.5580224689514667,0.0,0.0,-11.091293667579118,0.0,
0,-1.853829421291996,0.6467965815547682,0.0,0.0,-11.105086391474483,0.0,
0,-1.2070328397372276,0.6467965815547682,0.0,0.0,-11.314259327739563,0.0,
0,-1.1562043343434896,-0.1434733641522219,0.0,0.0,-11.325917613032889,0.0,
0,-1.2996776984957115,-0.1434733641522219,0.0,0.0,-11.33620991748723,0.0,
0,-1.2464400214685154,0.6819356644647281,0.0,0.0,-11.350097590899283,0.0,
0,-0.5645043570037873,0.6819356644647281,0.0,0.0,-11.582615746491323,0.0,
0,-0.46138193084383106,0.33888504329983865,0.0,0.0,-11.60924776228485,0.0,
0,-0.1224968875439924,0.33888504329983865,0.0,0.0,-11.666669306067972,0.0,
0,-0.049981096663132565,0.39479467388287515,0.0,0.0,-11.680432998388353,0.0,
0,0.3448135772197426,0.39479467388287515,0.0,0.0,-11.75836442582622,0.0,
0,0.4514951629199801,0.6610925392776027,0.0,0.0,-11.786054627066406,0.0,
0,1.1125877021975827,0.6610925392776027,0.0,0.0,-12.004576328340848,0.0,
0,1.1701110942807402,-0.07892788371345383,0.0,0.0,-12.018204024067009,0.0,
0,1.0911832105672863,-0.07892788371345383,0.0,0.0,-12.02131882988742,0.0,
0,1.151006644120178,0.6708733192516124,0.0,0.0,-12.034387652512839,0.0,
0,1.8218799633717904,0.6708733192516124,0.0,0.0,-12.25942318713531,0.0,
0,1.8372254454388999,-0.5153542952108108,0.0,0.0,-12.273129820577354,0.0,
0,1.321871150228089,-0.5153542952108108,0.0,0.0,-12.405924862711187,0.0,
0,1.306563599243629,0.363601789595,0.0,0.0,-12.413067280148246,0.0,
0,1.6701653888386292,0.363601789595,0.0,0.0,-12.479170419477013,0.0,
0,1.6360803029643456,-0.7082305620306815,0.0,0.0,-12.493039573545326,0.0,
0,0.9278497409336641,-0.7082305620306815,0.0,0.0,-12.743834870786301,0.0,
0,0.8446447241366252,-0.11550986599949731,0.0,0.0,-12.763625956094321,0.0,
0,0.7291348581371279,-0.11550986599949731,0.0,0.0,-12.770297221536932,0.0,
0,0.661727186872147,-0.5664015088725002,0.0,0.0,-12.784141788266725,0.0,
0,0.09532567799964686,-0.5664015088725002,0.0,0.0,-12.944547143835766,0.0,
0,-0.0164551035315363,-0.54003691289759,0.0,0.0,-12.974476727287971,0.0,
0,-0.5564920164291264,-0.54003691289759,0.0,0.0,-13.1202966799722,0.0,
0,-0.6253659853350173,-0.15689159459039448,0.0,0.0,-13.133970772970267,0.0,
0,-0.7822575799254118,-0.15689159459039448,0.0,0.0,-13.14627826080369,0.0,
0,-0.869787210885625,-0.7093487723003675,0.0,0.0,-13.166935068353384,0.0,
0,-1.5791359831859926,-0.7093487723003675,0.0,0.0,-13.418522941582708,0.0,
0,-1.6169266653596168,0.32676897953815753,0.0,0.0,-13.432165096568212,0.0,
0,-1.2901576858214594,0.32676897953815753,0.0,0.0,-13.485554086532883,0.0,
0,-1.3120697145160949,-0.5434266057367434,0.0,0.0,-13.492984924588995,0.0,
0,-1.8554963202528383,-0.5434266057367434,0.0,0.0,-13.640641181778271,0.0,
0,-1.844343648545331,0.6560046654942302,0.0,0.0,-13.654443416711697,0.0,
0,-1.1883389830511009,0.6560046654942302,0.0,0.0,-13.869614505379527,0.0,
0,-1.1342771819339803,-0.12068118867401956,0.0,0.0,-13.881914745769748,0.0,
0,-1.2549583706079999,-0.12068118867401956,0.0,0.0,-13.88919672137037,0.0,
0,-1.2001325529742657,0.6752182196816824,0.0,0.0,-13.903084434318577,0.0,
0,-0.5249143332925833,0.6752182196816824,0.0,0.0,-14.13104428617606,0.0,
0,-0.4204273369716621,0.35910211248549345,0.0,0.0,-14.158192460594572,0.0,
