0,1.0,0.0,0.0,0.0,0.0,0.0,
0,0.9351172266666666,-0.6416554666666667,0.0,0.0,-0.014344535206155452,0.0,
0,0.2934617599999999,-0.6416554666666667,0.0,0.0,-0.2202054310349572,0.0,
0,0.18194034214502672,-0.4860431143522419,0.0,0.0,-0.251437028659424,0.0,
0,-0.30410277220721516,-0.4860431143522419,0.0,0.0,-0.3695559985856467,0.0,
0,-0.3794547352850707,-0.25937808291825026,0.0,0.0,-0.38420110676471797,0.0,
0,-0.6388328182033209,-0.25937808291825026,0.0,0.0,-0.41783960610573284,0.0,
0,-0.7346104970406113,-0.7089778441250109,0.0,0.0,-0.44227931137001864,0.0,
0,-1.443588341165622,-0.7089778441250109,0.0,0.0,-0.6936041359130549,0.0,
0,-1.4886192984258257,0.2633089553588941,0.0,0.0,-0.7073605664076711,0.0,
0,-1.2253103430669317,0.2633089553588941,0.0,0.0,-0.742026373919734,0.0,
0,-1.2534970013598448,-0.5481226131565029,0.0,0.0,-0.74889688864206,0.0,
0,-1.8016196145163477,-0.5481226131565029,0.0,0.0,-0.8991161077814338,0.0,
0,-1.7919529371712255,0.643460176620112,0.0,0.0,-0.9124585103947941,0.0,
0,-1.1484927605511135,0.643460176620112,0.0,0.0,-1.1194790368713812,0.0,
0,-1.0938300084983497,-0.09055231494823457,0.0,0.0,-1.1308975587086616,0.0,
0,-1.1843823234465842,-0.09055231494823457,0.0,0.0,-1.1349974201151816,0.0,
0,-1.125250761146666,0.6752883628402293,0.0,0.0,-1.149175673448047,0.0,
0,-0.4499623983064367,0.6752883628402293,0.0,0.0,-1.3771828897103813,0.0,
0,-0.3420406194004144,0.4160374691940854,0.0,0.0,-1.4067516185480768,0.0,
0,0.073996849793671,0.4160374691940854,0.0,0.0,-1.4932952177339165,0.0,
0,0.15058375226800247,0.34156332119597066,0.0,0.0,-1.5079943075944655,0.0,
0,0.49214707346397313,0.34156332119597066,0.0,0.0,-1.5663270664035998,0.0,
0,0.5949067742607991,0.697415005887956,0.0,0.0,-1.5936660247630627,0.0,
0,1.2923217801487552,0.697415005887956,0.0,0.0,-1.8368599017332974,0.0,
0,1.3449053318988082,-0.17706054878318456,0.0,0.0,-1.8507897103804232,0.0,
0,1.1678447831156236,-0.17706054878318456,0.0,0.0,-1.8664649313946808,0.0,
0,1.2098155723944974,0.6012619954090674,0.0,0.0,-1.8753688887052158,0.0,
0,1.8110775678035649,0.6012619954090674,0.0,0.0,-2.0561269058666243,0.0,
0,1.8111927124379061,-0.599837372291535,0.0,0.0,-2.069437671831922,0.0,
0,1.2113553401463713,-0.599837372291535,0.0,0.0,-2.249340131918789,0.0,
0,1.169817088952186,0.17962814394692916,0.0,0.0,-2.258119373634764,0.0,
0,1.349445232899115,0.17962814394692916,0.0,0.0,-2.274252510790015,0.0,
0,1.2970295387670325,-0.6979055388580573,0.0,0.0,-2.288253545575062,0.0,
0,0.5991239999089752,-0.6979055388580573,0.0,0.0,-2.5317896479555064,0.0,
0,0.4965624153168713,-0.3392444691751343,0.0,0.0,-2.558988099380119,0.0,
0,0.157317946141737,-0.3392444691751343,0.0,0.0,-2.616531511825945,0.0,
0,0.08074545681112287,-0.41817726732367483,0.0,0.0,-2.6312398046629646,0.0,
0,-0.33743181051255194,-0.41817726732367483,0.0,0.0,-2.718675929531771,0.0,
0,-0.44549726795028344,-0.6744751493225887,0.0,0.0,-2.7483517087465885,0.0,
0,-1.119972417272872,-0.6744751493225887,0.0,0.0,-2.975810101970414,0.0,
0,-1.1792508259948509,0.08792309296889456,0.0,0.0,-2.9899185062466698,0.0,
0,-1.0913277330259563,0.08792309296889456,0.0,0.0,-2.9937837418899234,0.0,
0,-1.1463980894932468,-0.6445933989608968,0.0,0.0,-3.005356717960794,0.0,
0,-1.7909914884541438,-0.6445933989608968,0.0,0.0,-3.213107070076655,0.0,
0,-1.8008866516609012,0.5464290877561176,0.0,0.0,-3.2264316446603463,0.0,
0,-1.2544575639047837,0.5464290877561176,0.0,0.0,-3.3757240381249485,0.0,
0,-1.2267215275444863,-0.26577438184536606,0.0,0.0,-3.382507611397186,0.0,
0,-1.4924959093898522,-0.26577438184536606,0.0,0.0,-3.4178256270309486,0.0,
0,-1.447651192005786,0.7091379563673504,0.0,0.0,-3.431650030149248,0.0,
0,-0.7385132356384355,0.7091379563673504,0.0,0.0,-3.6830883835574633,0.0,
0,-0.6429849733741939,0.2569167863625041,0.0,0.0,-3.7073631825587436,0.0,
0,-0.3860681870116898,0.2569167863625041,0.0,0.0,-3.7403663044250486,0.0,
0,-0.3107592378157906,0.4879700754495571,0.0,0.0,-3.755038429757353,0.0,
0,0.1772108376337665,0.4879700754495571,0.0,0.0,-3.8740958425686087,0.0,
0,0.28881922075189725,0.6405324050983792,0.0,0.0,-3.9053941501419858,0.0,
0,0.9293516258502764,0.6405324050983792,0.0,0.0,-4.110535057915734,0.0,
0,0.994357934264647,0.00264933506334164,0.0,0.0,-4.124815676114953,0.0,
0,0.9970072693279887,0.00264933506334164,0.0,0.0,-4.124819185603551,0.0,
0,1.0642789307251486,0.6774098835563017,0.0,0.0,-4.139523326452136,0.0,
0,1.7416888142814502,0.6774098835563017,0.0,0.0,-4.368965431577972,0.0,
0,1.7612026512143988,-0.48410649728811894,0.0,0.0,-4.382348370350097,0.0,
0,1.27709615392628,-0.48410649728811894,0.0,0.0,-4.499527936007343,0.0,
0,1.2636148960620133,0.3475857027736513,0.0,0.0,-4.505089162445569,0.0,
0,1.6112005988356646,0.3475857027736513,0.0,0.0,-4.565497080718751,0.0,
0,1.5746584680014795,-0.7088022937328301,0.0,0.0,-4.579156924644479,0.0,
0,0.8658561742686494,-0.7088022937328301,0.0,0.0,-4.830357303241654,0.0,
0,0.7789196405910541,-0.17039738969158225,0.0,0.0,-4.851345072485597,0.0,
0,0.6085222508994719,-0.17039738969158225,0.0,0.0,-4.865862709587872,0.0,
0,0.5357053662720064,-0.5498031633575827,0.0,0.0,-4.88045565360102,0.0,
0,-0.014097797085576347,-0.5498031633575827,0.0,0.0,-5.031597432553089,0.0,
0,-0.1274284656767528,-0.5961403968379094,0.0,0.0,-5.063698532508493,0.0,
0,-0.7235688625146622,-0.5961403968379094,0.0,0.0,-5.241390242078948,0.0,
0,-0.7932426667158097,-0.09317923845271714,0.0,0.0,-5.2558255078568665,0.0,
0,-0.8864219051685268,-0.09317923845271714,0.0,0.0,-5.260166693662966,0.0,
0,-0.9647975624892793,-0.6991760333771018,0.0,0.0,-5.278260679413718,0.0,
0,-1.663973595866381,-0.6991760333771018,0.0,0.0,-5.522684274150125,0.0,
0,-1.6927878510359156,0.413886200893258,0.0,0.0,-5.536166347476713,0.0,
0,-1.2789016501426576,0.413886200893258,0.0,0.0,-5.621817252304219,0.0,
0,-1.279895199728116,-0.42372748558717777,0.0,0.0,-5.627008910260256,0.0,
0,-1.7036226853152938,-0.42372748558717777,0.0,0.0,-5.716781413001967,0.0,
0,-1.6759793163589245,0.6969039379851831,0.0,0.0,-5.730299471435103,0.0,
0,-0.9790753783737414,0.6969039379851831,0.0,0.0,-5.973137052529599,0.0,
0,-0.9021488346289386,0.08109763780804868,0.0,0.0,-5.990688029756259,0.0,
0,-0.8210511968208899,0.08109763780804868,0.0,0.0,-5.993976443614617,0.0,
0,-0.7519142575635688,0.6026677870096137,0.0,0.0,-6.008452344498364,0.0,
0,-0.14924647055395512,0.6026677870096137,0.0,0.0,-6.190056598958143,0.0,
0,-0.03604226628643756,0.5420232112309673,0.0,0.0,-6.222088581691381,0.0,
0,0.5059809449445297,0.5420232112309673,0.0,0.0,-6.368983181626501,0.0,
0,0.5791856920517846,0.1821898027224398,0.0,0.0,-6.38354548539813,0.0,
0,0.7613754947742244,0.1821898027224398,0.0,0.0,-6.400142049672998,0.0,
0,0.8495766911393341,0.7095366925941036,0.0,0.0,-6.421664280819733,0.0,
0,1.5591133837334377,0.7095366925941036,0.0,0.0,-6.673385472753134,0.0,
0,1.5967580815055704,-0.3369136416288875,0.0,0.0,-6.687001016229993,0.0,
0,1.2598444398766828,-0.3369136416288875,0.0,0.0,-6.743756424597796,0.0,
0,1.2752967000435353,0.49295758608068474,0.0,0.0,-6.749455331619352,0.0,
0,1.76825428612422,0.49295758608068474,0.0,0.0,-6.870958938320107,0.0,
0,1.7499606934549379,-0.6736368983883055,0.0,0.0,-6.884367206375867,0.0,
0,1.0763237950666324,-0.6736368983883055,0.0,0.0,-7.111260571434166,0.0,
0,1.0106622205195706,0.009525743899176597,0.0,0.0,-7.1254483452006525,0.0,
0,1.020187964418747,0.009525743899176597,0.0,0.0,-7.125493715104993,0.0,
0,0.955858829492487,-0.645701497179893,0.0,0.0,-7.139822323624776,0.0,
0,0.310157332312594,-0.645701497179893,0.0,0.0,-7.34828756257217,0.0,
0,0.19892629331805853,-0.47906358731574816,0.0,0.0,-7.379383006081859,0.0,
0,-0.2801372939976896,-0.47906358731574816,0.0,0.0,-7.49413398140966,0.0,
0,-0.35567882215697955,-0.26822898705686216,0.0,0.0,-7.50878746443549,0.0,
0,-0.6239078092138417,-0.26822898705686216,0.0,0.0,-7.544760863880951,0.0,
0,-0.72049579394795,-0.7083227604046329,0.0,0.0,-7.569526962411956,0.0,
0,-1.428818554352583,-0.7083227604046329,0.0,0.0,-7.820387561617928,0.0,
0,-1.4746796644981537,0.2544444209806407,0.0,0.0,-7.834162244634636,0.0,
0,-1.220235243517513,0.2544444209806407,0.0,0.0,-7.866533230545078,0.0,
0,-1.2498942523544168,-0.5541466007929905,0.0,0.0,-7.873583262766046,0.0,
0,-1.8040408531474073,-0.5541466007929905,0.0,0.0,-8.027122510397339,0.0,
0,-1.7953955317463675,0.6393806430117295,0.0,0.0,-8.040460125508854,0.0,
0,-1.156014888734638,0.6393806430117295,0.0,0.0,-8.24486395552486,0.0,
0,-1.1026895068435312,-0.09999442650898505,0.0,0.0,-8.255980686392538,0.0,
0,-1.202683933352516,-0.09999442650898505,0.0,0.0,-8.260980129711696,0.0,
0,-1.1442120406563607,0.6782022097086051,0.0,0.0,-8.275140775105994,0.0,
0,-0.4660098309477556,0.6782022097086051,0.0,0.0,-8.505119923758883,0.0,
0,-0.35856648408318514,0.4082885175740909,0.0,0.0,-8.534472264113248,0.0,
0,0.04972203349090576,0.4082885175740909,0.0,0.0,-8.617822031786815,0.0,
0,0.12636805179353705,0.3498932116305057,0.0,0.0,-8.632524916367123,0.0,
0,0.47626126342404274,0.3498932116305057,0.0,0.0,-8.693737554131598,0.0,
0,0.5796604611646914,0.6955539509991581,0.0,0.0,-8.721352342129116,0.0,
0,1.2752144121638493,0.6955539509991581,0.0,0.0,-8.96325002308654,0.0,
0,1.3285438654288177,-0.1678238170816786,0.0,0.0,-8.977199180539442,0.0,
0,1.1607200483471392,-0.1678238170816786,0.0,0.0,-8.991281599167975,0.0,
0,1.2041020873467767,0.6062962918274266,0.0,0.0,-9.000438850560537,0.0,
0,1.8103983791742033,0.6062962918274266,0.0,0.0,-9.184236471298993,0.0,
0,1.8115424340777695,-0.5946939098896533,0.0,0.0,-9.197547169936543,0.0,
0,1.2168485241881162,-0.5946939098896533,0.0,0.0,-9.374377616253444,0.0,
0,1.176729326330183,0.18883259337958502,0.0,0.0,-9.382915053753482,0.0,
0,1.365561919709768,0.18883259337958502,0.0,0.0,-9.40074393024245,0.0,
0,1.3139011660014777,-0.6996396598282085,0.0,0.0,-9.414726863682388,0.0,
0,0.6142615061732691,-0.6996396598282085,0.0,0.0,-9.659474722438928,0.0,
0,0.5123586035834418,-0.33085249571022146,0.0,0.0,-9.686390670176054,0.0,
0,0.1815061078732203,-0.33085249571022146,0.0,0.0,-9.741122364280663,0.0,
0,0.10500591732332833,-0.425850254574529,0.0,0.0,-9.755829668635844,0.0,
0,-0.3208443372512007,-0.425850254574529,0.0,0.0,-9.846503900134865,0.0,
0,-0.42936804925854877,-0.6714384734104112,0.0,0.0,-9.876387077627989,0.0,
0,-1.10080652266896,-0.6714384734104112,0.0,0.0,-10.101801918845997,0.0,
0,-1.1607344129998092,0.07846483988001818,0.0,0.0,-10.115929554424348,0.0,
0,-1.0822695731197909,0.07846483988001818,0.0,0.0,-10.119007920374958,0.0,
0,-1.1386670563023176,-0.6485558721098226,0.0,0.0,-10.13089156578418,0.0,
0,-1.7872229284121401,-0.6485558721098226,0.0,0.0,-10.341203952866627,0.0,
0,-1.7981377716597766,0.54030559370194,0.0,0.0,-10.35453322834427,0.0,
0,-1.2578321779578365,0.54030559370194,0.0,0.0,-10.500498314694271,0.0,
0,-1.2315737297197145,-0.2745910151619674,0.0,0.0,-10.50711584348777,0.0,
0,-1.5061647448816817,-0.2745910151619674,0.0,0.0,-10.544815961213736,0.0,
0,-1.4621579241296174,0.7096640536880929,0.0,0.0,-10.558622989509153,0.0,
0,-0.7524938704415245,0.7096640536880929,0.0,0.0,-10.810434556934172,0.0,
0,-0.6577937964431211,0.24801868437393715,0.0,0.0,-10.834379152996197,0.0,
0,-0.40977511206918393,0.24801868437393715,0.0,0.0,-10.865135790911072,0.0,
0,-0.3346686978600324,0.4948609850564093,0.0,0.0,-10.879802252324321,0.0,
0,0.1601922871963769,0.4948609850564093,0.0,0.0,-11.00224596557607,0.0,
0,0.2720702056152914,0.6363696364440399,0.0,0.0,-11.033669819152724,0.0,
0,0.9084398420593313,0.6363696364440399,0.0,0.0,-11.236153002682883,0.0,
0,0.9739886164454525,0.01217481877125226,0.0,0.0,-11.250451528510991,0.0,
0,0.9861634352167048,0.01217481877125226,0.0,0.0,-11.250525641626725,0.0,
0,1.054656450263317,0.6802358854062673,0.0,0.0,-11.265577696896244,0.0,
0,1.7348923356695842,0.6802358854062673,0.0,0.0,-11.496938156999883,0.0,
0,1.7553999883056741,-0.4771028566202373,0.0,0.0,-11.510330303068065,0.0,
0,1.2782971316854368,-0.4771028566202373,0.0,0.0,-11.624143885825157,0.0,
0,1.2663278932853785,0.3558706912793794,0.0,0.0,-11.629625677415476,0.0,
0,1.622198584564758,0.3558706912793794,0.0,0.0,-11.692947660138623,0.0,
0,1.586563638600136,-0.7081117759237832,0.0,0.0,-11.70659202849763,0.0,
0,0.8784518626763529,-0.7081117759237832,0.0,0.0,-11.95730320483144,0.0,
0,0.7924995145932051,-0.1611383100231807,0.0,0.0,-11.97793458790911,0.0,
0,0.6313612045700244,-0.1611383100231807,0.0,0.0,-11.990917367082703,0.0,
0,0.5588737881803125,-0.5557995779322381,0.0,0.0,-12.005500383344508,0.0,
0,0.003074210248074416,-0.5557995779322381,0.0,0.0,-12.159956988925185,0.0,
0,-0.1103328760002317,-0.5909194340509807,0.0,0.0,-12.192093680750839,0.0,
0,-0.7012523100512124,-0.5909194340509807,0.0,0.0,-12.36668659231525,0.0,
0,-0.7713527145206296,-0.10261656409620051,0.0,0.0,-12.381137321881575,0.0,
0,-0.87396927861683,-0.10261656409620051,0.0,0.0,-12.386402402182439,0.0,
0,-0.9534405917709459,-0.7008194546575086,0.0,0.0,-12.404858996541199,0.0,
0,-1.6542600464284545,-0.7008194546575086,0.0,0.0,-12.650432982616556,0.0,
0,-1.6840260406514471,0.40611665724569646,0.0,0.0,-12.6639282149644,0.0,
0,-1.2779093834057507,0.40611665724569646,0.0,0.0,-12.746393595377288,0.0,
0,-1.2804247184904631,-0.43134567220605774,0.0,0.0,-12.751597649751963,0.0,
0,-1.711770390696521,-0.43134567220605774,0.0,0.0,-12.844627206363347,0.0,
0,-1.6850886964730107,0.6950080601405608,0.0,0.0,-12.858132737812852,0.0,
0,-0.9900806363324499,0.6950080601405608,0.0,0.0,-13.099650871175626,0.0,
0,-0.9142782216881071,0.07162862104400192,0.0,0.0,-13.116842496910465,0.0,
0,-0.8426496006441052,0.07162862104400192,0.0,0.0,-13.119407826921726,0.0,
0,-0.7739636892333219,0.6076718801983984,0.0,0.0,-13.133870224923372,0.0,
0,-0.16629180903492358,0.6076718801983984,0.0,0.0,-13.318502806020925,0.0,
0,-0.053205552834678094,0.5358292157602323,0.0,0.0,-13.350478170280562,0.0,
0,0.48262366292555425,0.5358292157602323,0.0,0.0,-13.494034663254407,0.0,
0,0.5561321845804408,0.19138501854981083,0.0,0.0,-13.508609025605587,0.0,
0,0.7475172031302516,0.19138501854981083,0.0,0.0,-13.526923140659333,0.0,
0,0.8366704831179173,0.7099707151157709,0.0,0.0,-13.548799168442189,0.0,
0,1.5466411982336883,0.7099707151157709,0.0,0.0,-13.800828409508119,0.0,
0,1.5851800323697447,-0.32850493368492006,0.0,0.0,-13.814460252239044,0.0,
0,1.2566750986848247,-0.32850493368492006,0.0,0.0,-13.868418005011433,0.0,
0,1.2736340855766934,0.49978469023916366,0.0,0.0,-13.874220393675825,0.0,
0,1.773418775815857,0.49978469023916366,0.0,0.0,-13.9991127782805,0.0,
0,1.7561256603620394,-0.6705665787246469,0.0,0.0,-14.012512325662062,0.0,
0,1.0855590816373926,-0.6705665787246469,0.0,0.0,-14.237342123267073,0.0,
0,1.0211432428530425,0.019050231313960886,0.0,0.0,-14.251190991178921,0.0,
